{
    "page": 1,
    "total_results": 19783,
    "total_pages": 990,
    "results": [
      {
        "vote_count": 1949,
        "id": 354912,
        "video": false,
        "vote_average": 7.7,
        "title": "Coco",
        "popularity": 428.64022,
        "poster_path": "\/eKi8dIrr8voobbaGzDpe8w0PVbC.jpg",
        "original_language": "en",
        "original_title": "Coco",
        "genre_ids": [
          10751,
          16,
          12,
          35
        ],
        "backdrop_path": "\/askg3SMvhqEl4OL52YuvdtY40Yb.jpg",
        "adult": false,
        "overview": "Despite his family’s baffling generations-old ban on music, Miguel dreams of becoming an accomplished musician like his idol, Ernesto de la Cruz. Desperate to prove his talent, Miguel finds himself in the stunning and colorful Land of the Dead following a mysterious chain of events. Along the way, he meets charming trickster Hector, and together, they set off on an extraordinary journey to unlock the real story behind Miguel's family history.",
        "release_date": "2017-10-27"
      },
      {
        "vote_count": 3042,
        "id": 335984,
        "video": false,
        "vote_average": 7.4,
        "title": "Blade Runner 2049",
        "popularity": 386.437462,
        "poster_path": "\/gajva2L0rPYkEWjzgFlBXCAVBE5.jpg",
        "original_language": "en",
        "original_title": "Blade Runner 2049",
        "genre_ids": [
          9648,
          878,
          53
        ],
        "backdrop_path": "\/mVr0UiqyltcfqxbAUcLl9zWL8ah.jpg",
        "adult": false,
        "overview": "Thirty years after the events of the first film, a new blade runner, LAPD Officer K, unearths a long-buried secret that has the potential to plunge what's left of society into chaos. K's discovery leads him on a quest to find Rick Deckard, a former LAPD blade runner who has been missing for 30 years.",
        "release_date": "2017-10-04"
      },
      {
        "vote_count": 6638,
        "id": 198663,
        "video": false,
        "vote_average": 7,
        "title": "The Maze Runner",
        "popularity": 383.104773,
        "poster_path": "\/coss7RgL0NH6g4fC2s5atvf3dFO.jpg",
        "original_language": "en",
        "original_title": "The Maze Runner",
        "genre_ids": [
          28,
          9648,
          878,
          53
        ],
        "backdrop_path": "\/lkOZcsXcOLZYeJ2YxJd3vSldvU4.jpg",
        "adult": false,
        "overview": "Set in a post-apocalyptic world, young Thomas is deposited in a community of boys after his memory is erased, soon learning they're all trapped in a maze that will require him to join forces with fellow “runners” for a shot at escape.",
        "release_date": "2014-09-10"
      },
      {
        "vote_count": 3454,
        "id": 8844,
        "video": false,
        "vote_average": 7,
        "title": "Jumanji",
        "popularity": 239.749732,
        "poster_path": "\/8wBKXZNod4frLZjAKSDuAcQ2dEU.jpg",
        "original_language": "en",
        "original_title": "Jumanji",
        "genre_ids": [
          12,
          14,
          10751
        ],
        "backdrop_path": "\/7k4zEgUZbzMHawDaMc9yIkmY1qR.jpg",
        "adult": false,
        "overview": "When siblings Judy and Peter discover an enchanted board game that opens the door to a magical world, they unwittingly invite Alan -- an adult who's been trapped inside the game for 26 years -- into their living room. Alan's only hope for freedom is to finish the game, which proves risky as all three find themselves running from giant rhinoceroses, evil monkeys and other terrifying creatures.",
        "release_date": "1995-12-15"
      },
      {
        "vote_count": 6334,
        "id": 346364,
        "video": false,
        "vote_average": 7.1,
        "title": "It",
        "popularity": 222.534077,
        "poster_path": "\/9E2y5Q7WlCVNEhP5GiVTjhEhx1o.jpg",
        "original_language": "en",
        "original_title": "It",
        "genre_ids": [
          18,
          27,
          53
        ],
        "backdrop_path": "\/tcheoA2nPATCm2vvXw2hVQoaEFD.jpg",
        "adult": false,
        "overview": "In a small town in Maine, seven children known as The Losers Club come face to face with life problems, bullies and a monster that takes the shape of a clown called Pennywise.",
        "release_date": "2017-09-05"
      },
      {
        "vote_count": 5632,
        "id": 211672,
        "video": false,
        "vote_average": 6.4,
        "title": "Minions",
        "popularity": 205.594747,
        "poster_path": "\/q0R4crx2SehcEEQEkYObktdeFy.jpg",
        "original_language": "en",
        "original_title": "Minions",
        "genre_ids": [
          10751,
          16,
          12,
          35
        ],
        "backdrop_path": "\/qLmdjn2fv0FV2Mh4NBzMArdA0Uu.jpg",
        "adult": false,
        "overview": "Minions Stuart, Kevin and Bob are recruited by Scarlet Overkill, a super-villain who, alongside her inventor husband Herb, hatches a plot to take over the world.",
        "release_date": "2015-06-17"
      },
      {
        "vote_count": 352,
        "id": 460793,
        "video": false,
        "vote_average": 5.9,
        "title": "Olaf's Frozen Adventure",
        "popularity": 201.868329,
        "poster_path": "\/47pLZ1gr63WaciDfHCpmoiXJlVr.jpg",
        "original_language": "en",
        "original_title": "Olaf's Frozen Adventure",
        "genre_ids": [
          12,
          16,
          35,
          10751,
          14,
          10402
        ],
        "backdrop_path": "\/9K4QqQZg4TVXcxBGDiVY4Aey3Rn.jpg",
        "adult": false,
        "overview": "Olaf is on a mission to harness the best holiday traditions for Anna, Elsa, and Kristoff.",
        "release_date": "2017-10-27"
      },
      {
        "vote_count": 3822,
        "id": 339403,
        "video": false,
        "vote_average": 7.3,
        "title": "Baby Driver",
        "popularity": 193.248263,
        "poster_path": "\/dN9LbVNNZFITwfaRjl4tmwGWkRg.jpg",
        "original_language": "en",
        "original_title": "Baby Driver",
        "genre_ids": [
          28,
          80
        ],
        "backdrop_path": "\/goCvLSUFz0p7k8R10Hv4CVh3EQv.jpg",
        "adult": false,
        "overview": "After being coerced into working for a crime boss, a young getaway driver finds himself taking part in a heist doomed to fail.",
        "release_date": "2017-06-28"
      },
      {
        "vote_count": 2,
        "id": 394823,
        "video": false,
        "vote_average": 8,
        "title": "Robby and Toby's Fantastic Voyager",
        "popularity": 192.913536,
        "poster_path": "\/ssCEE0bfj5gawzwZeGfqrGQtU3f.jpg",
        "original_language": "de",
        "original_title": "Robbi, Tobbi und das Fliewatüüt",
        "genre_ids": [
          12,
          10751
        ],
        "backdrop_path": "\/gZF2EfM8ov834pCzRpt1xt01SUy.jpg",
        "adult": false,
        "overview": "One day, robot Robby enters into a life of the most creative little boy, Toby. Robby had been separated from his robot parents when his spaceship crashed. Toby decides to offer his help and the two of them become friends.",
        "release_date": "2016-12-01"
      },
      {
        "vote_count": 243,
        "id": 347882,
        "video": false,
        "vote_average": 5.2,
        "title": "Sleight",
        "popularity": 190.666557,
        "poster_path": "\/wridRvGxDqGldhzAIh3IcZhHT5F.jpg",
        "original_language": "en",
        "original_title": "Sleight",
        "genre_ids": [
          18,
          53,
          28,
          878
        ],
        "backdrop_path": "\/2SEgJ0mHJ7TSdVDbkGU061tR33K.jpg",
        "adult": false,
        "overview": "A young street magician is left to take care of his little sister after his mother's passing and turns to drug dealing in the Los Angeles party scene to keep a roof over their heads. When he gets into trouble with his supplier, his sister is kidnapped and he is forced to rely on both his sleight of hand and brilliant mind to save her.",
        "release_date": "2017-04-28"
      },
      {
        "vote_count": 3995,
        "id": 166426,
        "video": false,
        "vote_average": 6.5,
        "title": "Pirates of the Caribbean: Dead Men Tell No Tales",
        "popularity": 187.33215,
        "poster_path": "\/xbpSDU3p7YUGlu9Mr6Egg2Vweto.jpg",
        "original_language": "en",
        "original_title": "Pirates of the Caribbean: Dead Men Tell No Tales",
        "genre_ids": [
          12,
          28,
          14,
          35
        ],
        "backdrop_path": "\/7C921eWK06n12c1miRXnYoEu5Yv.jpg",
        "adult": false,
        "overview": "Thrust into an all-new adventure, a down-on-his-luck Capt. Jack Sparrow feels the winds of ill-fortune blowing even more strongly when deadly ghost sailors led by his old nemesis, the evil Capt. Salazar, escape from the Devil's Triangle. Jack's only hope of survival lies in seeking out the legendary Trident of Poseidon, but to find it, he must forge an uneasy alliance with a brilliant and beautiful astronomer and a headstrong young man in the British navy.",
        "release_date": "2017-05-23"
      },
      {
        "vote_count": 8462,
        "id": 209112,
        "video": false,
        "vote_average": 5.7,
        "title": "Batman v Superman: Dawn of Justice",
        "popularity": 182.094087,
        "poster_path": "\/cGOPbv9wA5gEejkUN892JrveARt.jpg",
        "original_language": "en",
        "original_title": "Batman v Superman: Dawn of Justice",
        "genre_ids": [
          28,
          12,
          14
        ],
        "backdrop_path": "\/vsjBeMPZtyB7yNsYY56XYxifaQZ.jpg",
        "adult": false,
        "overview": "Fearing the actions of a god-like Super Hero left unchecked, Gotham City’s own formidable, forceful vigilante takes on Metropolis’s most revered, modern-day savior, while the world wrestles with what sort of hero it really needs. And with Batman and Superman at war with one another, a new threat quickly arises, putting mankind in greater danger than it’s ever known before.",
        "release_date": "2016-03-23"
      },
      {
        "vote_count": 2056,
        "id": 339964,
        "video": false,
        "vote_average": 6.6,
        "title": "Valerian and the City of a Thousand Planets",
        "popularity": 166.820104,
        "poster_path": "\/jfIpMh79fGRqYJ6PwZLCntzgxlF.jpg",
        "original_language": "en",
        "original_title": "Valerian and the City of a Thousand Planets",
        "genre_ids": [
          12,
          878,
          28
        ],
        "backdrop_path": "\/7WjMTRF6LDa4latRUIDM25xnDO0.jpg",
        "adult": false,
        "overview": "In the 28th century, Valerian and Laureline are special operatives charged with keeping order throughout the human territories. On assignment from the Minister of Defense, the two undertake a mission to Alpha, an ever-expanding metropolis where species from across the universe have converged over centuries to share knowledge, intelligence, and cultures. At the center of Alpha is a mysterious dark force which threatens the peaceful existence of the City of a Thousand Planets, and Valerian and Laureline must race to identify the menace and safeguard not just Alpha, but the future of the universe.",
        "release_date": "2017-07-20"
      },
      {
        "vote_count": 3694,
        "id": 284053,
        "video": false,
        "vote_average": 7.5,
        "title": "Thor: Ragnarok",
        "popularity": 164.910032,
        "poster_path": "\/oSLd5GYGsiGgzDPKTwQh7wamO8t.jpg",
        "original_language": "en",
        "original_title": "Thor: Ragnarok",
        "genre_ids": [
          878,
          28,
          12,
          35
        ],
        "backdrop_path": "\/kaIfm5ryEOwYg8mLbq8HkPuM1Fo.jpg",
        "adult": false,
        "overview": "Thor is imprisoned on the other side of the universe and finds himself in a race against time to get back to Asgard to stop Ragnarok, the prophecy of destruction to his homeworld and the end of Asgardian civilization, at the hands of an all-powerful new threat, the ruthless Hela.",
        "release_date": "2017-10-25"
      },
      {
        "vote_count": 3511,
        "id": 324552,
        "video": false,
        "vote_average": 6.8,
        "title": "John Wick: Chapter 2",
        "popularity": 161.013375,
        "poster_path": "\/zkXnKIwX5pYorKJp2fjFSfNyKT0.jpg",
        "original_language": "en",
        "original_title": "John Wick: Chapter 2",
        "genre_ids": [
          53,
          28,
          80
        ],
        "backdrop_path": "\/dQ6s3Ud2KoOs3LKw6xgZr1cw7Yq.jpg",
        "adult": false,
        "overview": "John Wick is forced out of retirement by a former associate looking to seize control of a shadowy international assassins’ guild. Bound by a blood oath to aid him, Wick travels to Rome and does battle against some of the world’s most dangerous killers.",
        "release_date": "2017-02-08"
      },
      {
        "vote_count": 8104,
        "id": 99861,
        "video": false,
        "vote_average": 7.3,
        "title": "Avengers: Age of Ultron",
        "popularity": 155.917429,
        "poster_path": "\/t90Y3G8UGQp0f0DrP60wRu9gfrH.jpg",
        "original_language": "en",
        "original_title": "Avengers: Age of Ultron",
        "genre_ids": [
          28,
          12,
          878
        ],
        "backdrop_path": "\/vXIrvKadue7GdySiVh3huoQZiMi.jpg",
        "adult": false,
        "overview": "When Tony Stark tries to jumpstart a dormant peacekeeping program, things go awry and Earth’s Mightiest Heroes are put to the ultimate test as the fate of the planet hangs in the balance. As the villainous Ultron emerges, it is up to The Avengers to stop him from enacting his terrible plans, and soon uneasy alliances and unexpected action pave the way for an epic and unique global adventure.",
        "release_date": "2015-04-22"
      },
      {
        "vote_count": 6814,
        "id": 131631,
        "video": false,
        "vote_average": 6.7,
        "title": "The Hunger Games: Mockingjay - Part 1",
        "popularity": 151.528556,
        "poster_path": "\/gj282Pniaa78ZJfbaixyLXnXEDI.jpg",
        "original_language": "en",
        "original_title": "The Hunger Games: Mockingjay - Part 1",
        "genre_ids": [
          878,
          12,
          53
        ],
        "backdrop_path": "\/4PwyB0ErucIANzW24Kori71J6gU.jpg",
        "adult": false,
        "overview": "Katniss Everdeen reluctantly becomes the symbol of a mass rebellion against the autocratic Capitol.",
        "release_date": "2014-11-18"
      },
      {
        "vote_count": 7020,
        "id": 240832,
        "video": false,
        "vote_average": 6.2,
        "title": "Lucy",
        "popularity": 142.278493,
        "poster_path": "\/rwn876MeqienhOVSSjtUPnwxn0Z.jpg",
        "original_language": "en",
        "original_title": "Lucy",
        "genre_ids": [
          28,
          878
        ],
        "backdrop_path": "\/eCgIoGvfNXrbSiQGqQHccuHjQHm.jpg",
        "adult": false,
        "overview": "A woman, accidentally caught in a dark deal, turns the tables on her captors and transforms into a merciless warrior evolved beyond human logic.",
        "release_date": "2014-07-25"
      },
      {
        "vote_count": 6673,
        "id": 245891,
        "video": false,
        "vote_average": 7,
        "title": "John Wick",
        "popularity": 139.332769,
        "poster_path": "\/5vHssUeVe25bMrof1HyaPyWgaP.jpg",
        "original_language": "en",
        "original_title": "John Wick",
        "genre_ids": [
          28,
          53
        ],
        "backdrop_path": "\/umC04Cozevu8nn3JTDJ1pc7PVTn.jpg",
        "adult": false,
        "overview": "Ex-hitman John Wick comes out of retirement to track down the gangsters that took everything from him.",
        "release_date": "2014-10-22"
      },
      {
        "vote_count": 883,
        "id": 274855,
        "video": false,
        "vote_average": 5.7,
        "title": "Geostorm",
        "popularity": 137.827002,
        "poster_path": "\/nrsx0jEaBgXq4PWo7SooSnYJTv.jpg",
        "original_language": "en",
        "original_title": "Geostorm",
        "genre_ids": [
          28,
          878,
          53
        ],
        "backdrop_path": "\/6jrMdMe4sMygTcJPpQTjKPmP4l0.jpg",
        "adult": false,
        "overview": "After an unprecedented series of natural disasters threatened the planet, the world's leaders came together to create an intricate network of satellites to control the global climate and keep everyone safe. But now, something has gone wrong: the system built to protect Earth is attacking it, and it becomes a race against the clock to uncover the real threat before a worldwide geostorm wipes out everything and everyone along with it.",
        "release_date": "2017-10-13"
      }
    ]
  }